\relax 
\providecommand\hyper@newdestlabel[2]{}
\providecommand\HyperFirstAtBeginDocument{\AtBeginDocument}
\HyperFirstAtBeginDocument{\ifx\hyper@anchor\@undefined
\global\let\oldcontentsline\contentsline
\gdef\contentsline#1#2#3#4{\oldcontentsline{#1}{#2}{#3}}
\global\let\oldnewlabel\newlabel
\gdef\newlabel#1#2{\newlabelxx{#1}#2}
\gdef\newlabelxx#1#2#3#4#5#6{\oldnewlabel{#1}{{#2}{#3}}}
\AtEndDocument{\ifx\hyper@anchor\@undefined
\let\contentsline\oldcontentsline
\let\newlabel\oldnewlabel
\fi}
\fi}
\global\let\hyper@last\relax 
\gdef\HyperFirstAtBeginDocument#1{#1}
\providecommand\HyField@AuxAddToFields[1]{}
\providecommand\HyField@AuxAddToCoFields[2]{}
\bibstyle{biblatex}
\bibdata{tesi-blx,bibliography/bibliography,Bibliografia}
\citation{biblatex-control}
\abx@aux@sortscheme{nty}
\abx@aux@refcontext{nty/global/}
\citation{*}
\providecommand \oddpage@label [2]{}
\@writefile{toc}{\boolfalse {citerequest}\boolfalse {citetracker}\boolfalse {pagetracker}\boolfalse {backtracker}\relax }
\@writefile{lof}{\boolfalse {citerequest}\boolfalse {citetracker}\boolfalse {pagetracker}\boolfalse {backtracker}\relax }
\@writefile{lot}{\boolfalse {citerequest}\boolfalse {citetracker}\boolfalse {pagetracker}\boolfalse {backtracker}\relax }
\select@language{italian}
\@writefile{toc}{\defcounter {refsection}{0}\relax }\@writefile{toc}{\select@language{italian}}
\@writefile{lof}{\defcounter {refsection}{0}\relax }\@writefile{lof}{\select@language{italian}}
\@writefile{lot}{\defcounter {refsection}{0}\relax }\@writefile{lot}{\select@language{italian}}
\select@language{italian}
\@writefile{toc}{\defcounter {refsection}{0}\relax }\@writefile{toc}{\select@language{italian}}
\@writefile{lof}{\defcounter {refsection}{0}\relax }\@writefile{lof}{\select@language{italian}}
\@writefile{lot}{\defcounter {refsection}{0}\relax }\@writefile{lot}{\select@language{italian}}
\@input{chapters/ringraziamenti.aux}
\@writefile{toc}{\defcounter {refsection}{0}\relax }\@writefile{toc}{\contentsline {part}{I\hspace  {1em}Idea e funzionamento del programma}{1}{part.1}}
\@input{chapters/introduzione.aux}
\citation{functional}
\abx@aux@cite{functional}
\abx@aux@segm{0}{0}{functional}
\citation{quickCheck}
\abx@aux@cite{quickCheck}
\abx@aux@segm{0}{0}{quickCheck}
\@input{chapters/chapter2_new.aux}
\citation{butifar}
\abx@aux@cite{butifar}
\abx@aux@segm{0}{0}{butifar}
\citation{json}
\abx@aux@cite{json}
\abx@aux@segm{0}{0}{json}
\citation{codeQuotation}
\abx@aux@cite{codeQuotation}
\abx@aux@segm{0}{0}{codeQuotation}
\citation{refelction}
\abx@aux@cite{refelction}
\abx@aux@segm{0}{0}{refelction}
\citation{haskell}
\abx@aux@cite{haskell}
\abx@aux@segm{0}{0}{haskell}
\citation{fsCheck}
\abx@aux@cite{fsCheck}
\abx@aux@segm{0}{0}{fsCheck}
\citation{.net}
\abx@aux@cite{.net}
\abx@aux@segm{0}{0}{.net}
\citation{newtonsoft}
\abx@aux@cite{newtonsoft}
\abx@aux@segm{0}{0}{newtonsoft}
\@input{chapters/chapter3_new.aux}
\citation{dll}
\abx@aux@cite{dll}
\abx@aux@segm{0}{0}{dll}
\@writefile{toc}{\defcounter {refsection}{0}\relax }\@writefile{toc}{\contentsline {part}{II\hspace  {1em}Funzionalit\`a aggiunte}{14}{part.2}}
\@input{chapters/chapter7.aux}
\citation{types}
\abx@aux@cite{types}
\abx@aux@segm{0}{0}{types}
\@input{chapters/chapter6.aux}
\@input{chapters/conclusione.aux}
\@writefile{toc}{\defcounter {refsection}{0}\relax }\@writefile{toc}{\contentsline {chapter}{Bibliografia}{26}{chapter*.4}}
\@writefile{lof}{\defcounter {refsection}{0}\relax }\@writefile{lof}{\addvspace {10\p@ }}
\@writefile{lot}{\defcounter {refsection}{0}\relax }\@writefile{lot}{\addvspace {10\p@ }}
\@writefile{loa}{\defcounter {refsection}{0}\relax }\@writefile{loa}{\addvspace {10\p@ }}
\abx@aux@refcontextdefaultsdone
\abx@aux@defaultrefcontext{0}{cSharp}{nty/global/}
\abx@aux@defaultrefcontext{0}{refelction}{nty/global/}
\abx@aux@defaultrefcontext{0}{butifar}{nty/global/}
\abx@aux@defaultrefcontext{0}{quickCheck}{nty/global/}
\abx@aux@defaultrefcontext{0}{codeQuotation}{nty/global/}
\abx@aux@defaultrefcontext{0}{json}{nty/global/}
\abx@aux@defaultrefcontext{0}{visualbasic}{nty/global/}
\abx@aux@defaultrefcontext{0}{AST}{nty/global/}
\abx@aux@defaultrefcontext{0}{functional}{nty/global/}
\abx@aux@defaultrefcontext{0}{reflectionAPI}{nty/global/}
\abx@aux@defaultrefcontext{0}{newtonsoft}{nty/global/}
\abx@aux@defaultrefcontext{0}{unitTesting}{nty/global/}
\abx@aux@defaultrefcontext{0}{fsCheck}{nty/global/}
\abx@aux@defaultrefcontext{0}{fSharp}{nty/global/}
\abx@aux@defaultrefcontext{0}{.net}{nty/global/}
\abx@aux@defaultrefcontext{0}{dll}{nty/global/}
\abx@aux@defaultrefcontext{0}{haskell}{nty/global/}
\abx@aux@defaultrefcontext{0}{types}{nty/global/}
