\select@language {italian}
\select@language {italian}
\beamer@sectionintoc {1}{Introduzione}{2}{0}{1}
\beamer@sectionintoc {2}{Il Funzionamento}{5}{0}{2}
\beamer@sectionintoc {3}{Funzionalit\IeC {\`a} Aggiunte}{7}{0}{3}
\beamer@subsectionintoc {3}{1}{Tipi di Dati Algebrici}{7}{0}{3}
\beamer@subsectionintoc {3}{2}{Double e generatori built-in}{11}{0}{3}
