\headcommand {\slideentry {0}{0}{1}{1/1}{}{0}}
\headcommand {\beamer@framepages {1}{1}}
\headcommand {\beamer@sectionpages {1}{1}}
\headcommand {\beamer@subsectionpages {1}{1}}
\headcommand {\sectionentry {1}{Introduzione}{2}{Introduzione}{0}}
\headcommand {\slideentry {1}{0}{1}{2/2}{}{0}}
\headcommand {\beamer@framepages {2}{2}}
\headcommand {\slideentry {1}{0}{2}{3/3}{}{0}}
\headcommand {\beamer@framepages {3}{3}}
\headcommand {\slideentry {1}{0}{3}{4/4}{}{0}}
\headcommand {\beamer@framepages {4}{4}}
\headcommand {\beamer@sectionpages {2}{4}}
\headcommand {\beamer@subsectionpages {2}{4}}
\headcommand {\sectionentry {2}{Il Funzionamento}{5}{Il Funzionamento}{0}}
\headcommand {\slideentry {2}{0}{1}{5/5}{}{0}}
\headcommand {\beamer@framepages {5}{5}}
\headcommand {\slideentry {2}{0}{2}{6/6}{}{0}}
\headcommand {\beamer@framepages {6}{6}}
\headcommand {\beamer@sectionpages {5}{6}}
\headcommand {\beamer@subsectionpages {5}{6}}
\headcommand {\sectionentry {3}{Funzionalit\IeC {\`a} Aggiunte}{7}{Funzionalit\IeC {\`a} Aggiunte}{0}}
\headcommand {\beamer@subsectionpages {7}{6}}
\headcommand {\beamer@subsectionentry {0}{3}{1}{7}{Tipi di Dati Algebrici}}
\headcommand {\slideentry {3}{1}{1}{7/7}{Tipi di Dati Algebrici}{0}}
\headcommand {\beamer@framepages {7}{7}}
\headcommand {\slideentry {3}{1}{2}{8/8}{Tipi di Dati Algebrici}{0}}
\headcommand {\beamer@framepages {8}{8}}
\headcommand {\slideentry {3}{1}{3}{9/9}{Tipi di Dati Algebrici}{0}}
\headcommand {\beamer@framepages {9}{9}}
\headcommand {\slideentry {3}{1}{4}{10/10}{Tipi di Dati Algebrici}{0}}
\headcommand {\beamer@framepages {10}{10}}
\headcommand {\beamer@subsectionpages {7}{10}}
\headcommand {\beamer@subsectionentry {0}{3}{2}{11}{Double e generatori built-in}}
\headcommand {\slideentry {3}{2}{1}{11/11}{Double e generatori built-in}{0}}
\headcommand {\beamer@framepages {11}{11}}
\headcommand {\slideentry {3}{2}{2}{12/12}{Double e generatori built-in}{0}}
\headcommand {\beamer@framepages {12}{12}}
\headcommand {\slideentry {3}{2}{3}{13/13}{Double e generatori built-in}{0}}
\headcommand {\beamer@framepages {13}{13}}
\headcommand {\partentry {Appendice}{1}}
\headcommand {\beamer@partpages {1}{13}}
\headcommand {\beamer@sectionpages {7}{13}}
\headcommand {\beamer@subsectionpages {11}{13}}
\headcommand {\beamer@appendixpages {14}}
\headcommand {\beamer@sectionpages {14}{13}}
\headcommand {\beamer@subsectionpages {14}{13}}
\headcommand {\sectionentry {4}{Examples}{14}{Examples}{1}}
\headcommand {\slideentry {4}{0}{1}{14/14}{}{1}}
\headcommand {\beamer@framepages {14}{14}}
\headcommand {\slideentry {4}{0}{2}{15/15}{}{1}}
\headcommand {\beamer@framepages {15}{15}}
\headcommand {\slideentry {4}{0}{3}{16/16}{}{1}}
\headcommand {\beamer@framepages {16}{16}}
\headcommand {\slideentry {4}{0}{4}{17/17}{}{1}}
\headcommand {\beamer@framepages {17}{17}}
\headcommand {\slideentry {4}{0}{5}{18/18}{}{1}}
\headcommand {\beamer@framepages {18}{18}}
\headcommand {\slideentry {4}{0}{6}{19/19}{}{1}}
\headcommand {\beamer@framepages {19}{19}}
\headcommand {\slideentry {4}{0}{7}{20/20}{}{1}}
\headcommand {\beamer@framepages {20}{20}}
\headcommand {\beamer@partpages {14}{20}}
\headcommand {\beamer@subsectionpages {14}{20}}
\headcommand {\beamer@sectionpages {14}{20}}
\headcommand {\beamer@documentpages {20}}
\headcommand {\def \inserttotalframenumber {7}}
\headcommand {\def \inserttotalframenumber {13}}
\headcommand {\def \appendixtotalframenumber {7}}
